{
    "manufacturer": "Coliss86",
    "keyboard_name": "Flactyl manuform",
    "maintainer": "Coliss86",
    "rgblight": {
        "animations": {
            "knight": true,
            "rainbow_mood": true,
            "rainbow_swirl": true
        },
        "brightness_steps": 10,
        "default": {
            "animation": "rainbow_swirl",
            "hue": 64,
            "sat": 255,
            "val": 120
        },
        "hue_steps": 4,
        "led_count": 46,
        // continuous
        "led_map": [22, 21, 20, 19, 18, 17, 16, 15, 14, 13, 12, 11, 10, 9, 8, 7, 6, 5, 4, 3, 2, 1, 0, 45, 44, 43, 42, 41, 40, 39, 38, 37, 36, 35, 34, 33, 32, 31, 30, 29, 28, 27, 26, 25, 24, 23],
        // mirror
        // "led_map": [1, 2, 3, 4, 5, 6, 7, 8, 9, 10, 11, 12, 13, 14, 15, 16, 17, 18, 19, 20, 21, 22, 23, 23, 22, 21, 20, 19, 18, 17, 16, 15, 14, 13, 12, 11, 10, 9, 8, 7, 6, 5, 4, 3, 2, 1],
        "max_brightness": 68,
        "split": true,
        "split_count": [23, 23]
    },
    "usb": {
        "device_version": "1.0.0",
        "pid": "0x4567",
        "vid": "0xBEAF"
    }
}
