{
    "manufacturer": "Coliss86",
    "maintainer": "Coliss86",
    "board": "BLACKPILL_STM32_F401",
    "bootloader": "stm32-dfu",
    "bootmagic": {
        "enabled": false
    },
    "build": {
        "lto": true
    },
    "debounce": 5,
    "diode_direction": "COL2ROW",
    "encoder": {
        "enabled": true,
        "rotary": [
            {"pin_a": "B12", "pin_b": "B13"}
        ]
    },
    "features": {
        "deferred_exec": true,
        "extrakey": true,
        "leader": true,
        "nkro": false,
        "os_detection": true,
        "rgblight": true,
        "tap_dance": true,
        "velocikey": true
    },
    "leader_key": {
        "timeout": 800
    },
    "matrix_pins": {
        // A9, A10, A11, A12, B2, C13 cannot be used: https://docs.qmk.fm/platformdev_blackpill_f4x1#pin-usage-limitations
        // A11 and A12 is used for USB connection
        // B2 is used by BOOT1
        "cols": ["A4", "A5", "A6", "A7", "B0", "B1", "B10"],
        "rows": ["C13", "C14", "C15", "A0", "A1"]
    },
    "mouse_key": {
        "enabled": true
    },
    "processor": "STM32F401",
    "split": {
        "enabled": true,
        "encoder": {
            "right": {
                "rotary": [
                    {"pin_a": "A4", "pin_b": "A5", "resolution": 4}
                ]
            }
        },
        "handedness": {
            "pin": "A13"
        },
        "matrix_pins": {
            "right": {
                "cols": ["B12", "B13", "B14", "B15", "A15", "B3", "B4"],
                "rows": ["B9", "B8", "B7", "B6", "B5"]
            }
        },
        "transport": {
            "protocol": "serial",
            "sync": {
                "layer_state": true,
                "modifiers": true
            },
            // Needed as the master side could enter slave state during poweron
            // of host, due to missing VUSB detection.
            "watchdog": true
        }
    },
    "tapping": {
        // TAPPING_TERM is the length of time in milliseconds that it takes for a press to be considered a hold. Less than it is a tap. Longer is a hold.
        "term": 200,
        "term_per_key": true
    },
    "url": "https://gitlab.com/coliss86/dactyl",
    "ws2812": {
        "pin": "A8"
    },
    "layouts": {
        "LAYOUT_5x7": {
            "layout": [
                {"label": "L11", "matrix": [0, 0], "x": 0, "y": 0},
                {"label": "L12", "matrix": [0, 1], "x": 1, "y": 0},
                {"label": "L13", "matrix": [0, 2], "x": 2, "y": 0},
                {"label": "L14", "matrix": [0, 3], "x": 3, "y": 0},
                {"label": "L15", "matrix": [0, 4], "x": 4, "y": 0},
                {"label": "L16", "matrix": [0, 5], "x": 5, "y": 0},
                {"label": "L17", "matrix": [0, 6], "x": 6, "y": 0},
                {"label": "R11", "matrix": [5, 0], "x": 7, "y": 0},
                {"label": "R12", "matrix": [5, 1], "x": 8, "y": 0},
                {"label": "R13", "matrix": [5, 2], "x": 9, "y": 0},
                {"label": "R14", "matrix": [5, 3], "x": 10, "y": 0},
                {"label": "R15", "matrix": [5, 4], "x": 11, "y": 0},
                {"label": "R16", "matrix": [5, 5], "x": 12, "y": 0},
                {"label": "R17", "matrix": [5, 6], "x": 13, "y": 0},
                {"label": "L21", "matrix": [1, 0], "x": 14, "y": 0},
                {"label": "L22", "matrix": [1, 1], "x": 15, "y": 0},
                {"label": "L23", "matrix": [1, 2], "x": 16, "y": 0},
                {"label": "L24", "matrix": [1, 3], "x": 17, "y": 0},
                {"label": "L25", "matrix": [1, 4], "x": 18, "y": 0},
                {"label": "L26", "matrix": [1, 5], "x": 19, "y": 0},
                {"label": "L27", "matrix": [1, 6], "x": 20, "y": 0},
                {"label": "R21", "matrix": [6, 0], "x": 21, "y": 0},
                {"label": "R22", "matrix": [6, 1], "x": 22, "y": 0},
                {"label": "R23", "matrix": [6, 2], "x": 23, "y": 0},
                {"label": "R24", "matrix": [6, 3], "x": 24, "y": 0},
                {"label": "R25", "matrix": [6, 4], "x": 25, "y": 0},
                {"label": "R26", "matrix": [6, 5], "x": 26, "y": 0},
                {"label": "R27", "matrix": [6, 6], "x": 27, "y": 0},
                {"label": "L31", "matrix": [2, 0], "x": 28, "y": 0},
                {"label": "L32", "matrix": [2, 1], "x": 29, "y": 0},
                {"label": "L33", "matrix": [2, 2], "x": 30, "y": 0},
                {"label": "L34", "matrix": [2, 3], "x": 31, "y": 0},
                {"label": "L35", "matrix": [2, 4], "x": 32, "y": 0},
                {"label": "L36", "matrix": [2, 5], "x": 33, "y": 0},
                {"label": "L37", "matrix": [2, 6], "x": 34, "y": 0},
                {"label": "R31", "matrix": [7, 0], "x": 35, "y": 0},
                {"label": "R32", "matrix": [7, 1], "x": 36, "y": 0},
                {"label": "R33", "matrix": [7, 2], "x": 37, "y": 0},
                {"label": "R34", "matrix": [7, 3], "x": 38, "y": 0},
                {"label": "R35", "matrix": [7, 4], "x": 39, "y": 0},
                {"label": "R36", "matrix": [7, 5], "x": 40, "y": 0},
                {"label": "R37", "matrix": [7, 6], "x": 41, "y": 0},
                {"label": "L41", "matrix": [3, 0], "x": 42, "y": 0},
                {"label": "L42", "matrix": [3, 1], "x": 43, "y": 0},
                {"label": "L43", "matrix": [3, 2], "x": 44, "y": 0},
                {"label": "L44", "matrix": [3, 3], "x": 45, "y": 0},
                {"label": "L45", "matrix": [3, 4], "x": 46, "y": 0},
                {"label": "L46", "matrix": [3, 5], "x": 47, "y": 0},
                {"label": "R42", "matrix": [8, 1], "x": 48, "y": 0},
                {"label": "R43", "matrix": [8, 2], "x": 49, "y": 0},
                {"label": "R44", "matrix": [8, 3], "x": 50, "y": 0},
                {"label": "R45", "matrix": [8, 4], "x": 51, "y": 0},
                {"label": "R46", "matrix": [8, 5], "x": 52, "y": 0},
                {"label": "R47", "matrix": [8, 6], "x": 53, "y": 0},
                {"label": "L51", "matrix": [4, 0], "x": 54, "y": 0},
                {"label": "L52", "matrix": [4, 1], "x": 55, "y": 0},
                {"label": "R56", "matrix": [9, 5], "x": 56, "y": 0},
                {"label": "R57", "matrix": [9, 6], "x": 57, "y": 0},
                {"label": "L53", "matrix": [4, 2], "x": 58, "y": 0},
                {"label": "L55", "matrix": [4, 4], "x": 59, "y": 0},
                {"label": "L57", "matrix": [4, 6], "x": 60, "y": 0},
                {"label": "R51", "matrix": [9, 0], "x": 61, "y": 0},
                {"label": "R53", "matrix": [9, 2], "x": 62, "y": 0},
                {"label": "R55", "matrix": [9, 4], "x": 63, "y": 0},
                {"label": "L54", "matrix": [4, 3], "x": 64, "y": 0},
                {"label": "L56", "matrix": [4, 5], "x": 65, "y": 0},
                {"label": "R52", "matrix": [9, 1], "x": 66, "y": 0},
                {"label": "R54", "matrix": [9, 3], "x": 67, "y": 0}
            ]
        }
    }
}
